{
    "app-id" : "org.gnome.syncer",
    "runtime" : "org.gnome.Platform",
    "runtime-version" : "3.38",
    "sdk" : "org.gnome.Sdk",
    "command" : "syncer",
    "finish-args" : [
        "--share=network",
        "--share=ipc",
        "--socket=fallback-x11",
        "--socket=wayland"
    ],
    "cleanup" : [
        "/include",
        "/lib/pkgconfig",
        "/man",
        "/share/doc",
        "/share/gtk-doc",
        "/share/man",
        "/share/pkgconfig",
        "*.la",
        "*.a"
    ],
    "modules" : [
        {
            "name" : "python3-modules",
            "buildsystem" : "simple",
            "build-commands" : [],
            "modules" : [
                {
                    "name" : "python3-fatsecret",
                    "buildsystem" : "simple",
                    "build-commands" : [
                        "pip3 install --exists-action=i --no-index --find-links=\"file://${PWD}\" --prefix=${FLATPAK_DEST} \"fatsecret\""
                    ],
                    "sources" : [
                        {
                            "type" : "file",
                            "url" : "https://files.pythonhosted.org/packages/5e/c4/6c4fe722df5343c33226f0b4e0bb042e4dc13483228b4718baf286f86d87/certifi-2020.6.20-py2.py3-none-any.whl",
                            "sha256" : "8fc0819f1f30ba15bdb34cceffb9ef04d99f420f68eb75d901e9560b8749fc41"
                        },
                        {
                            "type" : "file",
                            "url" : "https://files.pythonhosted.org/packages/a2/38/928ddce2273eaa564f6f50de919327bf3a00f091b5baba8dfa9460f3a8a8/idna-2.10-py2.py3-none-any.whl",
                            "sha256" : "b97d804b1e9b523befed77c48dacec60e6dcb0b5391d57af6a65a312a90648c0"
                        },
                        {
                            "type" : "file",
                            "url" : "https://files.pythonhosted.org/packages/9f/f0/a391d1463ebb1b233795cabfc0ef38d3db4442339de68f847026199e69d7/urllib3-1.25.10-py2.py3-none-any.whl",
                            "sha256" : "e7983572181f5e1522d9c98453462384ee92a0be7fac5f1413a1e35c56cc0461"
                        },
                        {
                            "type" : "file",
                            "url" : "https://files.pythonhosted.org/packages/bc/a9/01ffebfb562e4274b6487b4bb1ddec7ca55ec7510b22e4c51f14098443b8/chardet-3.0.4-py2.py3-none-any.whl",
                            "sha256" : "fc323ffcaeaed0e0a02bf4d117757b98aed530d9ed4531e3e15460124c106691"
                        },
                        {
                            "type" : "file",
                            "url" : "https://files.pythonhosted.org/packages/43/aa/7c8e852275394d65ac5bf3ac9945ecaafe4d083089e09cb0a267efea389a/rauth-0.7.3.tar.gz",
                            "sha256" : "524cdbc1c28560eacfc9a9d40c59525eb8d00fdf07fbad86107ea24411477b0a"
                        },
                        {
                            "type" : "file",
                            "url" : "https://files.pythonhosted.org/packages/45/1e/0c169c6a5381e241ba7404532c16a21d86ab872c9bed8bdcd4c423954103/requests-2.24.0-py2.py3-none-any.whl",
                            "sha256" : "fe75cc94a9443b9246fc7049224f75604b113c36acb93f87b80ed42c44cbb898"
                        },
                        {
                            "type" : "file",
                            "url" : "https://files.pythonhosted.org/packages/58/a9/06109a37a67cd919d9710025c0d019359350e6c0da0ebc23371dd50235f4/fatsecret-0.2.3.tar.gz",
                            "sha256" : "4cd9d05459a7ed8749462e7db45662e763e48aa7e84a8b8d7eb6b7cc1dca7df3"
                        }
                    ]
                },
                {
                    "name" : "python3-fitbit",
                    "buildsystem" : "simple",
                    "build-commands" : [
                        "pip3 install --exists-action=i --no-index --find-links=\"file://${PWD}\" --prefix=${FLATPAK_DEST} \"fitbit\""
                    ],
                    "sources" : [
                        {
                            "type" : "file",
                            "url" : "https://files.pythonhosted.org/packages/9f/f0/a391d1463ebb1b233795cabfc0ef38d3db4442339de68f847026199e69d7/urllib3-1.25.10-py2.py3-none-any.whl",
                            "sha256" : "e7983572181f5e1522d9c98453462384ee92a0be7fac5f1413a1e35c56cc0461"
                        },
                        {
                            "type" : "file",
                            "url" : "https://files.pythonhosted.org/packages/bc/a9/01ffebfb562e4274b6487b4bb1ddec7ca55ec7510b22e4c51f14098443b8/chardet-3.0.4-py2.py3-none-any.whl",
                            "sha256" : "fc323ffcaeaed0e0a02bf4d117757b98aed530d9ed4531e3e15460124c106691"
                        },
                        {
                            "type" : "file",
                            "url" : "https://files.pythonhosted.org/packages/5e/c4/6c4fe722df5343c33226f0b4e0bb042e4dc13483228b4718baf286f86d87/certifi-2020.6.20-py2.py3-none-any.whl",
                            "sha256" : "8fc0819f1f30ba15bdb34cceffb9ef04d99f420f68eb75d901e9560b8749fc41"
                        },
                        {
                            "type" : "file",
                            "url" : "https://files.pythonhosted.org/packages/a2/38/928ddce2273eaa564f6f50de919327bf3a00f091b5baba8dfa9460f3a8a8/idna-2.10-py2.py3-none-any.whl",
                            "sha256" : "b97d804b1e9b523befed77c48dacec60e6dcb0b5391d57af6a65a312a90648c0"
                        },
                        {
                            "type" : "file",
                            "url" : "https://files.pythonhosted.org/packages/45/1e/0c169c6a5381e241ba7404532c16a21d86ab872c9bed8bdcd4c423954103/requests-2.24.0-py2.py3-none-any.whl",
                            "sha256" : "fe75cc94a9443b9246fc7049224f75604b113c36acb93f87b80ed42c44cbb898"
                        },
                        {
                            "type" : "file",
                            "url" : "https://files.pythonhosted.org/packages/05/57/ce2e7a8fa7c0afb54a0581b14a65b56e62b5759dbc98e80627142b8a3704/oauthlib-3.1.0-py2.py3-none-any.whl",
                            "sha256" : "df884cd6cbe20e32633f1db1072e9356f53638e4361bef4e8b03c9127c9328ea"
                        },
                        {
                            "type" : "file",
                            "url" : "https://files.pythonhosted.org/packages/ee/ff/48bde5c0f013094d729fe4b0316ba2a24774b3ff1c52d924a8a4cb04078a/six-1.15.0-py2.py3-none-any.whl",
                            "sha256" : "8b74bedcbbbaca38ff6d7491d76f2b06b3592611af620f8426e82dddb04a5ced"
                        },
                        {
                            "type" : "file",
                            "url" : "https://files.pythonhosted.org/packages/a3/12/b92740d845ab62ea4edf04d2f4164d82532b5a0b03836d4d4e71c6f3d379/requests_oauthlib-1.3.0-py2.py3-none-any.whl",
                            "sha256" : "7f71572defaecd16372f9006f33c2ec8c077c3cfa6f5911a9a90202beb513f3d"
                        },
                        {
                            "type" : "file",
                            "url" : "https://files.pythonhosted.org/packages/d4/70/d60450c3dd48ef87586924207ae8907090de0b306af2bce5d134d78615cb/python_dateutil-2.8.1-py2.py3-none-any.whl",
                            "sha256" : "75bb3f31ea686f1197762692a9ee6a7550b59fc6ca3a1f4b5d7e32fb98e2da2a"
                        },
                        {
                            "type" : "file",
                            "url" : "https://files.pythonhosted.org/packages/cd/86/db096edd95e839f3fe123f78ae891efe9caf0e28f0333f2e9ac584bab9fd/setuptools-49.3.1-py3-none-any.whl",
                            "sha256" : "b90e630c5d6b118357392245a9a3b34d22e06fe94538b4b0830a7b4b693a0e5c"
                        },
                        {
                            "type" : "file",
                            "url" : "https://files.pythonhosted.org/packages/05/46/47fb03b722f335c30b0d2734537c6932afdc465e22c5045008bfa2c122b1/fitbit-0.3.1.tar.gz",
                            "sha256" : "ea09dc22bafccf5678c779dae93d6ed393a310847f9c7cb4a885f241312dde9b"
                        }
                    ]
                }
            ]
        },
        {
            "name" : "syncery",
            "builddir": true,
            "buildsystem" : "meson",
            "sources" : [
                {
                    "type" : "dir",
                    "path" : "/home/babist1st/Projects/syncer"
                }
            ]
        }
    ],
    "build-options" : {
        "env" : {        }
    }
}
